{
    "data": [
        {
            "logo": "https://upload.wikimedia.org/wikipedia/fr/thumb/2/23/Brittany_Ferries_%28logo%29.svg/512px-Brittany_Ferries_%28logo%29.svg.png",
            "picture": "https://corporate.brittany-ferries.com/iso_album/navire_armorique.jpg",
            "name": "Brittany Ferries",
            "link": "https://www.ouestfrance-emploi.com/entreprises-recrutent/brittany-ferries-5645/",
            "offerCount": 15,
            "city": "Rennes",
            "postalCode": "35000"
        },
        {
            "logo": "https://www.naval-group.com/themes/custom/customer/logo.svg",
            "picture": "https://www.naval-group.com/sites/default/files/styles/heading_article/public/2020-12/2020%2012%2007%20-%20PANG%20-%20vue%20en%20mer%20small.jpg?itok=S3CPqNjy",
            "name": "Naval Group",
            "link": "https://www.ouestfrance-emploi.com/entreprises-recrutent/naval-group-33010/",
            "offerCount": 8,
            "city": "Brest",
            "postalCode": "29000"
        },
        {
            "logo": "https://www.grimaldi-lines.com/wp-content/uploads/2019/06/grimaldilines.png",
            "picture": "https://www.grimaldi-lines.com/wp-content/uploads/2019/06/livorno.jpg",
            "name": "Grimaldi Lines",
            "link": "https://www.ouestfrance-emploi.com/entreprises-recrutent/additi-16/",
            "offerCount": 12,
            "city": "Livourne",
            "postalCode": "57123"
        },
        {
            "logo": "https://www.cefcm.com/public/images/logos/cefcm.png",
            "picture": "https://www.cefcm.com/bases/diaporama_image/grande/3/Passerelle.jpg",
            "name": "CFECM",
            "link": "https://www.ouestfrance-emploi.com/entreprises-recrutent/additi-16/",
            "offerCount": 4,
            "city": "Concarneau",
            "postalCode": "29182"
        }
    ],
    "block": {
        "configuration": {
            "title": "Les entreprises maritimes qui recrutent"
        },
        "partner": {
            "utm": "lemarin-test"
        },
        "ofe": {
            "baseUrl": "https://ouestfrance-emploi.com"
        }
    }
}